{
	"verbose": true,
	"restartable": "rs",
	"ignore": [
		"src/app/**/_client",
		"src/app/_components",
		"src/public/js",
		"src/public/css"
	],
	"watch": [
		"lib/**",
		"app.js",
		"nodemon.json",
		"src/server",
		"src/templates",
		"src/app/**/index.js",
		"src/app/**/*.hbs",
		"src/app/**/*.scss",
		"src/app/**/*.json",
		"src/config/manifest.json",
		"src/config/variables.json",
		"public/scss",
		"sky_modules/**/src"
	],
	"ext": "js json hbs scss"
}
